sketch_MP3_player/MIPs_Course_Project/src3/wave.vcd
$date
	Sun Jun 29 12:34:12 2025
$end
$version
	Icarus Verilog
$end
$timescale
	1ps
$end
$scope module top_test $end
$var wire 32 ! output_data [31:0] $end
$var reg 1 " clk $end
$var reg 32 # input_data [31:0] $end
$var reg 1 $ rst $end
$scope module my_top $end
$var wire 1 " clk $end
$var wire 32 % input_data [31:0] $end
$var wire 32 & output_data [31:0] $end
$var wire 1 $ rst $end
$var wire 1 ' timer_we $end
$var wire 1 ( timer_irq $end
$var wire 32 ) prwd [31:0] $end
$var wire 32 * prrd [31:0] $end
$var wire 32 + praddr [31:0] $end
$var wire 1 , outdevice_en $end
$var wire 32 - outdevice_data [31:0] $end
$var wire 32 . indevice_data [31:0] $end
$var wire 32 / data_to_output [31:0] $end
$var wire 1 0 bridge_wen $end
$var wire 2 1 addr_i [1:0] $end
$var wire 1 2 Wen $end
$var wire 5 3 SEL [4:0] $end
$var wire 30 4 PC [31:2] $end
$var wire 1 5 Intreq_to_mip $end
$var wire 6 6 HWInt [7:2] $end
$var wire 1 7 EXLSet $end
$var wire 1 8 EXLClr $end
$var wire 30 9 EPC_to_mip [31:2] $end
$var wire 32 : Dout [31:0] $end
$var wire 32 ; DIn [31:0] $end
$scope module my__cp0 $end
$var wire 32 < DOut [31:0] $end
$var wire 1 5 IntReq $end
$var wire 1 " clk $end
$var wire 1 $ rst $end
$var wire 6 = im [5:0] $end
$var wire 1 > ie $end
$var wire 1 ? exl $end
$var wire 30 @ epc [31:2] $end
$var wire 1 2 Wen $end
$var wire 5 A Sel [4:0] $end
$var wire 30 B PC [31:2] $end
$var wire 6 C HWInt [7:2] $end
$var wire 1 7 EXLSet $end
$var wire 1 8 EXLClr $end
$var wire 32 D DIn [31:0] $end
$var parameter 5 E CAUSE $end
$var parameter 5 F EPC_R $end
$var parameter 5 G PRID $end
$var parameter 5 H SR $end
$var integer 32 I i [31:0] $end
$upscope $end
$scope module my_bridge $end
$var wire 1 J hittimer $end
$var wire 32 K out_wd [31:0] $end
$var wire 1 , outdevice_we $end
$var wire 1 ' timer_we $end
$var wire 1 0 wen $end
$var wire 2 L timer_addr [1:0] $end
$var wire 32 M prwd [31:0] $end
$var wire 32 N prrd [31:0] $end
$var wire 32 O praddr [31:0] $end
$var wire 32 P outdevice_rd [31:0] $end
$var wire 1 ( irq $end
$var wire 32 Q indevice_rd [31:0] $end
$var wire 6 R hwint [7:2] $end
$var wire 1 S hitoutdevice $end
$upscope $end
$scope module my_in_device $end
$var wire 32 T data_in [31:0] $end
$var wire 32 U data_out [31:0] $end
$upscope $end
$scope module my_mips $end
$var wire 32 V Dout [31:0] $end
$var wire 30 W EPC [31:2] $end
$var wire 1 5 Intreq $end
$var wire 1 " clk $end
$var wire 32 X prrd [31:0] $end
$var wire 1 $ rst $end
$var wire 1 Y zero $end
$var wire 5 Z rt_out [4:0] $end
$var wire 5 [ rs_out [4:0] $end
$var wire 32 \ prwd [31:0] $end
$var wire 32 ] praddr [31:0] $end
$var wire 1 ^ pos $end
$var wire 6 _ opcode [5:0] $end
$var wire 1 ` int_npc $end
$var wire 6 a funct [5:0] $end
$var wire 1 b flow $end
$var wire 1 c eret $end
$var wire 1 0 bridge_wen $end
$var wire 1 2 Wen $end
$var wire 3 d WDsel [2:0] $end
$var wire 5 e SEL [4:0] $end
$var wire 1 f PCWr $end
$var wire 30 g PC [31:2] $end
$var wire 2 h NPCOp [1:0] $end
$var wire 1 i MemByte $end
$var wire 1 j IRWr $end
$var wire 2 k GPRsel [1:0] $end
$var wire 1 l GPRWr $end
$var wire 2 m Extop [1:0] $end
$var wire 1 7 EXLSet $end
$var wire 1 8 EXLClr $end
$var wire 1 n DMWr $end
$var wire 32 o DIn [31:0] $end
$var wire 1 p Bsel $end
$var wire 2 q ALUsel [1:0] $end
$var wire 2 r ALUOp [1:0] $end
$scope module my_controller $end
$var wire 1 n DMWr $end
$var wire 1 8 EXLClr $end
$var wire 1 l GPRWr $end
$var wire 1 i MemByte $end
$var wire 1 f PCWr $end
$var wire 1 2 Wen $end
$var wire 1 0 bridge_wen $end
$var wire 1 " clk $end
$var wire 1 c eret $end
$var wire 1 5 intreq $end
$var wire 1 $ rst $end
$var wire 1 Y zero $end
$var wire 5 s rt [4:0] $end
$var wire 5 t rs [4:0] $end
$var wire 1 ^ pos $end
$var wire 6 u opcode [5:0] $end
$var wire 1 ` int_npc $end
$var wire 6 v funct [5:0] $end
$var wire 1 b flow $end
$var wire 3 w WDsel [2:0] $end
$var wire 2 x NPCOp [1:0] $end
$var wire 1 j IRWr $end
$var wire 2 y GPRsel [1:0] $end
$var wire 2 z Extop [1:0] $end
$var wire 1 7 EXLSet $end
$var wire 1 p Bsel $end
$var wire 2 { ALUsel [1:0] $end
$var wire 2 | ALUOp [1:0] $end
$var reg 4 } fsm [3:0] $end
$upscope $end
$scope module my_datapath $end
$var wire 2 ~ ALUOp [1:0] $end
$var wire 2 !" ALUsel [1:0] $end
$var wire 1 p Bsel $end
$var wire 32 "" DIn [31:0] $end
$var wire 1 n DMWr $end
$var wire 32 #" Dout [31:0] $end
$var wire 30 $" EPC [31:2] $end
$var wire 2 %" Extop [1:0] $end
$var wire 1 l GPRWr $end
$var wire 2 &" GPRsel [1:0] $end
$var wire 1 j IRWr $end
$var wire 1 i MemByte $end
$var wire 2 '" NPCOp [1:0] $end
$var wire 1 f PCWr $end
$var wire 3 (" WDsel [2:0] $end
$var wire 1 " clk $end
$var wire 1 c eret $end
$var wire 1 b flow $end
$var wire 1 ` intreq $end
$var wire 32 )" praddr [31:0] $end
$var wire 32 *" prrd [31:0] $end
$var wire 32 +" prwd [31:0] $end
$var wire 1 $ rst $end
$var wire 1 Y zero $end
$var wire 1 ," zero_out $end
$var wire 5 -" write_reg [4:0] $end
$var wire 32 ." write_data [31:0] $end
$var wire 5 /" rt_out [4:0] $end
$var wire 5 0" rs_out [4:0] $end
$var wire 32 1" reg_b_r [31:0] $end
$var wire 32 2" reg_b [31:0] $end
$var wire 32 3" reg_a_r [31:0] $end
$var wire 32 4" reg_a [31:0] $end
$var wire 1 ^ pos_out $end
$var wire 32 5" pc_4 [31:0] $end
$var wire 32 6" pc [31:0] $end
$var wire 6 7" opcode [5:0] $end
$var wire 32 8" npc [31:0] $end
$var wire 32 9" jr_data [31:0] $end
$var wire 32 :" instr_r [31:0] $end
$var wire 32 ;" instr [31:0] $end
$var wire 32 <" imm_ext [31:0] $end
$var wire 6 =" funct [5:0] $end
$var wire 1 >" flow_out $end
$var wire 32 ?" dm_out_r [31:0] $end
$var wire 32 @" dm_out [31:0] $end
$var wire 32 A" alu_out_r [31:0] $end
$var wire 32 B" alu_out [31:0] $end
$var wire 5 C" SEL [4:0] $end
$var wire 30 D" PC [31:2] $end
$scope module my_alu $end
$var wire 2 E" ALUOp [1:0] $end
$var wire 2 F" ALUsel [1:0] $end
$var wire 32 G" din2 [31:0] $end
$var wire 1 ," zero $end
$var wire 1 ^ pos $end
$var wire 32 H" din1 [31:0] $end
$var reg 32 I" dout [31:0] $end
$var reg 1 >" flow $end
$var reg 32 J" tmp [31:0] $end
$upscope $end
$scope module my_aluout $end
$var wire 1 " clk $end
$var wire 32 K" din [31:0] $end
$var reg 32 L" dout [31:0] $end
$upscope $end
$scope module my_dm $end
$var wire 1 i MemByte $end
$var wire 10 M" addr [9:0] $end
$var wire 1 " clk $end
$var wire 1 $ rst $end
$var wire 1 n we $end
$var wire 32 N" dout [31:0] $end
$var wire 32 O" din [31:0] $end
$var integer 32 P" i [31:0] $end
$upscope $end
$scope module my_dr $end
$var wire 1 " clk $end
$var wire 32 Q" din [31:0] $end
$var reg 32 R" dout [31:0] $end
$upscope $end
$scope module my_ext $end
$var wire 2 S" Extop [1:0] $end
$var wire 16 T" din [15:0] $end
$var reg 32 U" dout [31:0] $end
$upscope $end
$scope module my_gpr $end
$var wire 1 l GPRWr $end
$var wire 1 " clk $end
$var wire 32 V" data_out [31:0] $end
$var wire 32 W" read_data1 [31:0] $end
$var wire 32 X" read_data2 [31:0] $end
$var wire 5 Y" reg1 [4:0] $end
$var wire 5 Z" reg2 [4:0] $end
$var wire 5 [" reg_in [4:0] $end
$var wire 1 $ rst $end
$var wire 32 \" write_data [31:0] $end
$var wire 5 ]" write_reg [4:0] $end
$var integer 32 ^" i [31:0] $end
$upscope $end
$scope module my_im $end
$var wire 10 _" addr [9:0] $end
$var wire 32 `" dout [31:0] $end
$upscope $end
$scope module my_ir $end
$var wire 1 j IRWr $end
$var wire 1 " clk $end
$var wire 32 a" pc_in [31:0] $end
$var reg 32 b" instr [31:0] $end
$upscope $end
$scope module my_npc $end
$var wire 2 c" NPCOp [1:0] $end
$var wire 30 d" epc [31:2] $end
$var wire 1 c eret $end
$var wire 26 e" imm [25:0] $end
$var wire 1 ` intreq $end
$var wire 32 f" pc_4 [31:0] $end
$var wire 32 g" reg_data [31:0] $end
$var wire 32 h" addr [31:0] $end
$var reg 32 i" npc [31:0] $end
$upscope $end
$scope module my_opa $end
$var wire 1 " clk $end
$var wire 32 j" din [31:0] $end
$var reg 32 k" dout [31:0] $end
$upscope $end
$scope module my_opb $end
$var wire 1 " clk $end
$var wire 32 l" din [31:0] $end
$var reg 32 m" dout [31:0] $end
$upscope $end
$scope module my_pc $end
$var wire 1 f PCWr $end
$var wire 1 " clk $end
$var wire 32 n" din [31:0] $end
$var wire 1 $ rst $end
$var reg 32 o" dout [31:0] $end
$upscope $end
$upscope $end
$upscope $end
$scope module my_out_device $end
$var wire 1 " clk $end
$var wire 32 p" data_in [31:0] $end
$var wire 1 $ rst $end
$var wire 1 , write_en $end
$var reg 32 q" data_out [31:0] $end
$var reg 32 r" preData [31:0] $end
$upscope $end
$scope module my_timer $end
$var wire 2 s" ADD_I [3:2] $end
$var wire 1 " CLK_I $end
$var wire 32 t" DAT_I [31:0] $end
$var wire 1 $ RST_I $end
$var wire 1 ' WE_I $end
$var wire 1 8 exlclr $end
$var wire 2 u" mode [2:1] $end
$var wire 1 v" im $end
$var wire 1 w" enable $end
$var wire 1 ( IRQ $end
$var reg 32 x" COUNT [31:0] $end
$var reg 32 y" CTRL [31:0] $end
$var reg 32 z" PRESET [31:0] $end
$upscope $end
$upscope $end
$upscope $end
$scope module top_test $end
$scope module my_top $end
$scope module my_mips $end
$scope module my_datapath $end
$scope module my_gpr $end
$var reg 32 {" \regs[0] [31:0] $end
$upscope $end
$upscope $end
$upscope $end
$upscope $end
$upscope $end
$scope module top_test $end
$scope module my_top $end
$scope module my_mips $end
$scope module my_datapath $end
$scope module my_gpr $end
$var reg 32 |" \regs[1] [31:0] $end
$upscope $end
$upscope $end
$upscope $end
$upscope $end
$upscope $end
$scope module top_test $end
$scope module my_top $end
$scope module my_mips $end
$scope module my_datapath $end
$scope module my_gpr $end
$var reg 32 }" \regs[2] [31:0] $end
$upscope $end
$upscope $end
$upscope $end
$upscope $end
$upscope $end
$scope module top_test $end
$scope module my_top $end
$scope module my_mips $end
$scope module my_datapath $end
$scope module my_gpr $end
$var reg 32 ~" \regs[3] [31:0] $end
$upscope $end
$upscope $end
$upscope $end
$upscope $end
$upscope $end
$scope module top_test $end
$scope module my_top $end
$scope module my_mips $end
$scope module my_datapath $end
$scope module my_gpr $end
$var reg 32 !# \regs[4] [31:0] $end
$upscope $end
$upscope $end
$upscope $end
$upscope $end
$upscope $end
$scope module top_test $end
$scope module my_top $end
$scope module my_mips $end
$scope module my_datapath $end
$scope module my_gpr $end
$var reg 32 "# \regs[5] [31:0] $end
$upscope $end
$upscope $end
$upscope $end
$upscope $end
$upscope $end
$scope module top_test $end
$scope module my_top $end
$scope module my_mips $end
$scope module my_datapath $end
$scope module my_gpr $end
$var reg 32 ## \regs[6] [31:0] $end
$upscope $end
$upscope $end
$upscope $end
$upscope $end
$upscope $end
$scope module top_test $end
$scope module my_top $end
$scope module my_mips $end
$scope module my_datapath $end
$scope module my_gpr $end
$var reg 32 $# \regs[7] [31:0] $end
$upscope $end
$upscope $end
$upscope $end
$upscope $end
$upscope $end
$scope module top_test $end
$scope module my_top $end
$scope module my_mips $end
$scope module my_datapath $end
$scope module my_gpr $end
$var reg 32 %# \regs[8] [31:0] $end
$upscope $end
$upscope $end
$upscope $end
$upscope $end
$upscope $end
$scope module top_test $end
$scope module my_top $end
$scope module my_mips $end
$scope module my_datapath $end
$scope module my_gpr $end
$var reg 32 &# \regs[9] [31:0] $end
$upscope $end
$upscope $end
$upscope $end
$upscope $end
$upscope $end
$scope module top_test $end
$scope module my_top $end
$scope module my_mips $end
$scope module my_datapath $end
$scope module my_gpr $end
$var reg 32 '# \regs[10] [31:0] $end
$upscope $end
$upscope $end
$upscope $end
$upscope $end
$upscope $end
$scope module top_test $end
$scope module my_top $end
$scope module my_mips $end
$scope module my_datapath $end
$scope module my_gpr $end
$var reg 32 (# \regs[11] [31:0] $end
$upscope $end
$upscope $end
$upscope $end
$upscope $end
$upscope $end
$scope module top_test $end
$scope module my_top $end
$scope module my_mips $end
$scope module my_datapath $end
$scope module my_gpr $end
$var reg 32 )# \regs[12] [31:0] $end
$upscope $end
$upscope $end
$upscope $end
$upscope $end
$upscope $end
$scope module top_test $end
$scope module my_top $end
$scope module my_mips $end
$scope module my_datapath $end
$scope module my_gpr $end
$var reg 32 *# \regs[13] [31:0] $end
$upscope $end
$upscope $end
$upscope $end
$upscope $end
$upscope $end
$scope module top_test $end
$scope module my_top $end
$scope module my_mips $end
$scope module my_datapath $end
$scope module my_gpr $end
$var reg 32 +# \regs[14] [31:0] $end
$upscope $end
$upscope $end
$upscope $end
$upscope $end
$upscope $end
$scope module top_test $end
$scope module my_top $end
$scope module my_mips $end
$scope module my_datapath $end
$scope module my_gpr $end
$var reg 32 ,# \regs[15] [31:0] $end
$upscope $end
$upscope $end
$upscope $end
$upscope $end
$upscope $end
$scope module top_test $end
$scope module my_top $end
$scope module my_mips $end
$scope module my_datapath $end
$scope module my_gpr $end
$var reg 32 -# \regs[16] [31:0] $end
$upscope $end
$upscope $end
$upscope $end
$upscope $end
$upscope $end
$scope module top_test $end
$scope module my_top $end
$scope module my_mips $end
$scope module my_datapath $end
$scope module my_gpr $end
$var reg 32 .# \regs[17] [31:0] $end
$upscope $end
$upscope $end
$upscope $end
$upscope $end
$upscope $end
$scope module top_test $end
$scope module my_top $end
$scope module my_mips $end
$scope module my_datapath $end
$scope module my_gpr $end
$var reg 32 /# \regs[18] [31:0] $end
$upscope $end
$upscope $end
$upscope $end
$upscope $end
$upscope $end
$scope module top_test $end
$scope module my_top $end
$scope module my_mips $end
$scope module my_datapath $end
$scope module my_gpr $end
$var reg 32 0# \regs[19] [31:0] $end
$upscope $end
$upscope $end
$upscope $end
$upscope $end
$upscope $end
$scope module top_test $end
$scope module my_top $end
$scope module my_mips $end
$scope module my_datapath $end
$scope module my_gpr $end
$var reg 32 1# \regs[20] [31:0] $end
$upscope $end
$upscope $end
$upscope $end
$upscope $end
$upscope $end
$scope module top_test $end
$scope module my_top $end
$scope module my_mips $end
$scope module my_datapath $end
$scope module my_gpr $end
$var reg 32 2# \regs[21] [31:0] $end
$upscope $end
$upscope $end
$upscope $end
$upscope $end
$upscope $end
$scope module top_test $end
$scope module my_top $end
$scope module my_mips $end
$scope module my_datapath $end
$scope module my_gpr $end
$var reg 32 3# \regs[22] [31:0] $end
$upscope $end
$upscope $end
$upscope $end
$upscope $end
$upscope $end
$scope module top_test $end
$scope module my_top $end
$scope module my_mips $end
$scope module my_datapath $end
$scope module my_gpr $end
$var reg 32 4# \regs[23] [31:0] $end
$upscope $end
$upscope $end
$upscope $end
$upscope $end
$upscope $end
$scope module top_test $end
$scope module my_top $end
$scope module my_mips $end
$scope module my_datapath $end
$scope module my_gpr $end
$var reg 32 5# \regs[24] [31:0] $end
$upscope $end
$upscope $end
$upscope $end
$upscope $end
$upscope $end
$scope module top_test $end
$scope module my_top $end
$scope module my_mips $end
$scope module my_datapath $end
$scope module my_gpr $end
$var reg 32 6# \regs[25] [31:0] $end
$upscope $end
$upscope $end
$upscope $end
$upscope $end
$upscope $end
$scope module top_test $end
$scope module my_top $end
$scope module my_mips $end
$scope module my_datapath $end
$scope module my_gpr $end
$var reg 32 7# \regs[26] [31:0] $end
$upscope $end
$upscope $end
$upscope $end
$upscope $end
$upscope $end
$scope module top_test $end
$scope module my_top $end
$scope module my_mips $end
$scope module my_datapath $end
$scope module my_gpr $end
$var reg 32 8# \regs[27] [31:0] $end
$upscope $end
$upscope $end
$upscope $end
$upscope $end
$upscope $end
$scope module top_test $end
$scope module my_top $end
$scope module my_mips $end
$scope module my_datapath $end
$scope module my_gpr $end
$var reg 32 9# \regs[28] [31:0] $end
$upscope $end
$upscope $end
$upscope $end
$upscope $end
$upscope $end
$scope module top_test $end
$scope module my_top $end
$scope module my_mips $end
$scope module my_datapath $end
$scope module my_gpr $end
$var reg 32 :# \regs[29] [31:0] $end
$upscope $end
$upscope $end
$upscope $end
$upscope $end
$upscope $end
$scope module top_test $end
$scope module my_top $end
$scope module my_mips $end
$scope module my_datapath $end
$scope module my_gpr $end
$var reg 32 ;# \regs[30] [31:0] $end
$upscope $end
$upscope $end
$upscope $end
$upscope $end
$upscope $end
$scope module top_test $end
$scope module my_top $end
$scope module my_mips $end
$scope module my_datapath $end
$scope module my_gpr $end
$var reg 32 <# \regs[31] [31:0] $end
$upscope $end
$upscope $end
$upscope $end
$upscope $end
$upscope $end
$scope module top_test $end
$scope module my_top $end
$scope module my_mips $end
$scope module my_datapath $end
$scope module my_im $end
$var reg 8 =# \im[0] [7:0] $end
$upscope $end
$upscope $end
$upscope $end
$upscope $end
$upscope $end
$scope module top_test $end
$scope module my_top $end
$scope module my_mips $end
$scope module my_datapath $end
$scope module my_im $end
$var reg 8 ># \im[1] [7:0] $end
$upscope $end
$upscope $end
$upscope $end
$upscope $end
$upscope $end
$scope module top_test $end
$scope module my_top $end
$scope module my_mips $end
$scope module my_datapath $end
$scope module my_im $end
$var reg 8 ?# \im[2] [7:0] $end
$upscope $end
$upscope $end
$upscope $end
$upscope $end
$upscope $end
$scope module top_test $end
$scope module my_top $end
$scope module my_mips $end
$scope module my_datapath $end
$scope module my_im $end
$var reg 8 @# \im[3] [7:0] $end
$upscope $end
$upscope $end
$upscope $end
$upscope $end
$upscope $end
$scope module top_test $end
$scope module my_top $end
$scope module my_mips $end
$scope module my_datapath $end
$scope module my_im $end
$var reg 8 A# \im[4] [7:0] $end
$upscope $end
$upscope $end
$upscope $end
$upscope $end
$upscope $end
$scope module top_test $end
$scope module my_top $end
$scope module my_mips $end
$scope module my_datapath $end
$scope module my_im $end
$var reg 8 B# \im[5] [7:0] $end
$upscope $end
$upscope $end
$upscope $end
$upscope $end
$upscope $end
$scope module top_test $end
$scope module my_top $end
$scope module my_mips $end
$scope module my_datapath $end
$scope module my_im $end
$var reg 8 C# \im[6] [7:0] $end
$upscope $end
$upscope $end
$upscope $end
$upscope $end
$upscope $end
$scope module top_test $end
$scope module my_top $end
$scope module my_mips $end
$scope module my_datapath $end
$scope module my_im $end
$var reg 8 D# \im[7] [7:0] $end
$upscope $end
$upscope $end
$upscope $end
$upscope $end
$upscope $end
$scope module top_test $end
$scope module my_top $end
$scope module my_mips $end
$scope module my_datapath $end
$scope module my_im $end
$var reg 8 E# \im[8] [7:0] $end
$upscope $end
$upscope $end
$upscope $end
$upscope $end
$upscope $end
$scope module top_test $end
$scope module my_top $end
$scope module my_mips $end
$scope module my_datapath $end
$scope module my_im $end
$var reg 8 F# \im[9] [7:0] $end
$upscope $end
$upscope $end
$upscope $end
$upscope $end
$upscope $end
$scope module top_test $end
$scope module my_top $end
$scope module my_mips $end
$scope module my_datapath $end
$scope module my_im $end
$var reg 8 G# \im[10] [7:0] $end
$upscope $end
$upscope $end
$upscope $end
$upscope $end
$upscope $end
$scope module top_test $end
$scope module my_top $end
$scope module my_mips $end
$scope module my_datapath $end
$scope module my_im $end
$var reg 8 H# \im[11] [7:0] $end
$upscope $end
$upscope $end
$upscope $end
$upscope $end
$upscope $end
$scope module top_test $end
$scope module my_top $end
$scope module my_mips $end
$scope module my_datapath $end
$scope module my_im $end
$var reg 8 I# \im[12] [7:0] $end
$upscope $end
$upscope $end
$upscope $end
$upscope $end
$upscope $end
$scope module top_test $end
$scope module my_top $end
$scope module my_mips $end
$scope module my_datapath $end
$scope module my_im $end
$var reg 8 J# \im[13] [7:0] $end
$upscope $end
$upscope $end
$upscope $end
$upscope $end
$upscope $end
$scope module top_test $end
$scope module my_top $end
$scope module my_mips $end
$scope module my_datapath $end
$scope module my_im $end
$var reg 8 K# \im[14] [7:0] $end
$upscope $end
$upscope $end
$upscope $end
$upscope $end
$upscope $end
$scope module top_test $end
$scope module my_top $end
$scope module my_mips $end
$scope module my_datapath $end
$scope module my_im $end
$var reg 8 L# \im[15] [7:0] $end
$upscope $end
$upscope $end
$upscope $end
$upscope $end
$upscope $end
$enddefinitions $end
$comment Show the parameter values. $end
$dumpall
b1100 H
b1111 G
b1110 F
b1101 E
$end
#0
$dumpvars
b10000 L#
b1111111 K#
b100 J#
b110100 I#
b1000 H#
b1111111 G#
b11 F#
b110100 E#
b100 D#
b1111111 C#
b10 B#
b110100 A#
b0 @#
b1111111 ?#
b1 >#
b110100 =#
bx <#
bx ;#
bx :#
bx 9#
bx 8#
bx 7#
bx 6#
bx 5#
bx 4#
bx 3#
bx 2#
bx 1#
bx 0#
bx /#
bx .#
bx -#
bx ,#
bx +#
bx *#
bx )#
bx (#
bx '#
bx &#
bx %#
bx $#
bx ##
bx "#
bx !#
bx ~"
bx }"
bx |"
bx {"
b0 z"
b0 y"
b0 x"
0w"
0v"
b0 u"
bx t"
bx s"
bx r"
bx q"
bx p"
bx o"
bx n"
bx m"
bx l"
bx k"
bx j"
bx i"
bx h"
bx g"
bx f"
bx e"
bx d"
bx c"
bx b"
bx a"
bx `"
bx _"
bx ^"
bx ]"
bx \"
bx ["
bx Z"
bx Y"
bx X"
bx W"
bx V"
b0 U"
bx T"
bx S"
bx R"
bx Q"
bx P"
bx O"
bx N"
bx M"
bx L"
bx K"
bx J"
bx I"
bx H"
bx G"
bx F"
bx E"
bx D"
bx C"
bx B"
bx A"
bx @"
bx ?"
x>"
bx ="
b0 <"
bx ;"
bx :"
bx 9"
bx 8"
bx 7"
bx 6"
bx 5"
bx 4"
bx 3"
bx 2"
bx 1"
bx 0"
bx /"
bx ."
bx -"
x,"
bx +"
bx *"
bx )"
bx ("
bx '"
bx &"
bx %"
bx $"
bz #"
bx ""
bx !"
bx ~
bx }
bx |
bx {
bx z
bx y
bx x
bx w
bx v
bx u
bx t
bx s
bx r
bx q
xp
bx o
xn
bx m
xl
bx k
xj
xi
bx h
bx g
xf
bx e
bx d
xc
xb
bx a
x`
bx _
x^
bx ]
bx \
bx [
bx Z
xY
bx X
bx W
bx V
b0 U
b0 T
xS
b0 R
b0 Q
bx P
bx O
bx N
bx M
bx L
bx K
xJ
bx I
bx D
b0 C
bx B
bx A
bx @
x?
x>
bx =
bx <
bx ;
bx :
bx 9
x8
x7
b0 6
05
bx 4
bx 3
x2
bx 1
x0
bx /
b0 .
bx -
x,
bx +
bx *
bx )
0(
x'
bx &
b0 %
1$
b0 #
0"
bx !
$end
#5000
b0 h
b0 x
b0 '"
b0 c"
1f
0l
0,
0'
b0 *
b0 N
b0 X
b0 *"
b0 9
b0 @
b0 W
b0 $"
b0 d"
b1 =
0?
1>
0n
0c
08
02
00
b110100000000010111111100000000 ;"
b110100000000010111111100000000 `"
b110100000000010111111100000000 a"
b0 _"
b110000000000 4
b110000000000 B
b110000000000 g
b110000000000 D"
b11000000000100 8"
b11000000000100 i"
b11000000000100 n"
b0 !
b0 &
b0 -
b0 P
b0 q"
b0 r"
1j
0`
07
b0 }
b11000000000000 5"
b11000000000000 f"
b11000000000000 6"
b11000000000000 h"
b11000000000000 o"
b0 <#
b0 ;#
b0 :#
b0 9#
b0 8#
b0 7#
b0 6#
b0 5#
b0 4#
b0 3#
b0 2#
b0 1#
b0 0#
b0 /#
b0 .#
b0 -#
b0 ,#
b0 +#
b0 *#
b0 )#
b0 (#
b0 '#
b0 &#
b0 %#
b0 $#
b0 ##
b0 "#
b0 !#
b0 ~"
b0 }"
b0 |"
b0 {"
b100000 I
b100000 ^"
b10000000000 P"
1"
#10000
0"
0$
#15000
0Y
0,"
b1 -"
b1 ]"
bx1111111xxxxxxxx B"
bx1111111xxxxxxxx I"
bx1111111xxxxxxxx K"
0b
0>"
b111111100000000 G"
b111111100000000 <"
b111111100000000 U"
0f
b10 r
b10 |
b10 ~
b10 E"
1p
b0 m
b0 z
b0 %"
b0 S"
b0 k
b0 y
b0 &"
b0 d
b0 w
b0 ("
0i
b0 q
b0 {
b0 !"
b0 F"
b10111111100000000 e"
b111111100000000 T"
b0 9"
b0 V"
b0 g"
b0 ["
b0 2"
b0 X"
b0 l"
b1 Z"
b0 4"
b0 W"
b0 j"
b0 Y"
b100011000001110001000000000011 :
b100011000001110001000000000011 <
b100011000001110001000000000011 V
b1111 3
b1111 A
b1111 e
b1111 C"
b0 [
b0 t
b0 0"
b1 Z
b1 s
b1 /"
b0 a
b0 v
b0 ="
b1101 _
b1101 u
b1101 7"
b110100000000100111111100000100 ;"
b110100000000100111111100000100 `"
b110100000000100111111100000100 a"
b100 _"
b110000000001 4
b110000000001 B
b110000000001 g
b110000000001 D"
b11000000001000 8"
b11000000001000 i"
b11000000001000 n"
b110100000000010111111100000000 :"
b110100000000010111111100000000 b"
b11000000000100 5"
b11000000000100 f"
b11000000000100 6"
b11000000000100 h"
b11000000000100 o"
0j
b1 }
1"
#20000
0"
#25000
1^
b111111100000000 B"
b111111100000000 I"
b111111100000000 K"
b11xxxxxxxx M"
bx1111111xxxxxxxx ."
bx1111111xxxxxxxx \"
b10 }
b0 3"
b0 H"
b0 k"
b0 ;
b0 D
b0 o
b0 ""
b0 /
b0 K
b0 p"
b0 t"
b0 )
b0 M
b0 \
b0 +"
b0 1"
b0 O"
b0 m"
bx1111111xxxxxxxx +
bx1111111xxxxxxxx O
bx1111111xxxxxxxx ]
bx1111111xxxxxxxx )"
bx1111111xxxxxxxx A"
bx1111111xxxxxxxx L"
1"
#30000
0"
#35000
b0 @"
b0 N"
b0 Q"
1l
b1100000000 M"
b111111100000000 ."
b111111100000000 \"
b0 1
b0 L
b0 s"
1J
0S
b111111100000000 +
b111111100000000 O
b111111100000000 ]
b111111100000000 )"
b111111100000000 A"
b111111100000000 L"
b101 }
1"
#40000
0"
#45000
1f
0l
1j
b0 }
b111111100000000 |"
b111111100000000 2"
b111111100000000 X"
b111111100000000 l"
b0 ?"
b0 R"
1"
#50000
0"
#55000
b111111100000100 B"
b111111100000100 I"
b111111100000100 K"
0f
b111111100000100 G"
b111111100000100 <"
b111111100000100 U"
b10 -"
b10 ]"
b100111111100000100 e"
b111111100000100 T"
b0 2"
b0 X"
b0 l"
b10 Z"
b10 Z
b10 s
b10 /"
b100 a
b100 v
b100 ="
b110100000000110111111100001000 ;"
b110100000000110111111100001000 `"
b110100000000110111111100001000 a"
b1000 _"
b110000000010 4
b110000000010 B
b110000000010 g
b110000000010 D"
b11000000001100 8"
b11000000001100 i"
b11000000001100 n"
b111111100000000 ;
b111111100000000 D
b111111100000000 o
b111111100000000 ""
b111111100000000 /
b111111100000000 K
b111111100000000 p"
b111111100000000 t"
b111111100000000 )
b111111100000000 M
b111111100000000 \
b111111100000000 +"
b111111100000000 1"
b111111100000000 O"
b111111100000000 m"
b110100000000100111111100000100 :"
b110100000000100111111100000100 b"
b11000000001000 5"
b11000000001000 f"
b11000000001000 6"
b11000000001000 h"
b11000000001000 o"
0j
b1 }
1"
#60000
0"
#65000
b1100000100 M"
b111111100000100 ."
b111111100000100 \"
b1 1
b1 L
b1 s"
b10 }
b0 ;
b0 D
b0 o
b0 ""
b0 /
b0 K
b0 p"
b0 t"
b0 )
b0 M
b0 \
b0 +"
b0 1"
b0 O"
b0 m"
b111111100000100 +
b111111100000100 O
b111111100000100 ]
b111111100000100 )"
b111111100000100 A"
b111111100000100 L"
1"
#70000
0"
#75000
1l
b101 }
1"
#80000
0"
#85000
1f
0l
1j
b0 }
b111111100000100 }"
b111111100000100 2"
b111111100000100 X"
b111111100000100 l"
1"
#90000
0"
#95000
b111111100001000 B"
b111111100001000 I"
b111111100001000 K"
0f
b111111100001000 G"
b111111100001000 <"
b111111100001000 U"
b11 -"
b11 ]"
b110111111100001000 e"
b111111100001000 T"
b0 2"
b0 X"
b0 l"
b11 Z"
b11 Z
b11 s
b11 /"
b1000 a
b1000 v
b1000 ="
b110100000001000111111100010000 ;"
b110100000001000111111100010000 `"
b110100000001000111111100010000 a"
b1100 _"
b110000000011 4
b110000000011 B
b110000000011 g
b110000000011 D"
b11000000010000 8"
b11000000010000 i"
b11000000010000 n"
b111111100000100 ;
b111111100000100 D
b111111100000100 o
b111111100000100 ""
b111111100000100 /
b111111100000100 K
b111111100000100 p"
b111111100000100 t"
b111111100000100 )
b111111100000100 M
b111111100000100 \
b111111100000100 +"
b111111100000100 1"
b111111100000100 O"
b111111100000100 m"
b110100000000110111111100001000 :"
b110100000000110111111100001000 b"
b11000000001100 5"
b11000000001100 f"
b11000000001100 6"
b11000000001100 h"
b11000000001100 o"
0j
b1 }
1"
#100000
0"
