MIPs_Course_Project/src2/wave.vcd
$date
	Tue Jul 01 09:54:45 2025
$end
$version
	Icarus Verilog
$end
$timescale
	1ps
$end
$scope module tb_mips $end
$scope module my_mips $end
$scope module my_datapath $end
$scope module my_dm $end
$var reg 8 ! \dm[0] [7:0] $end
$upscope $end
$upscope $end
$upscope $end
$upscope $end
$scope module tb_mips $end
$scope module my_mips $end
$scope module my_datapath $end
$scope module my_dm $end
$var reg 8 " \dm[1] [7:0] $end
$upscope $end
$upscope $end
$upscope $end
$upscope $end
$scope module tb_mips $end
$scope module my_mips $end
$scope module my_datapath $end
$scope module my_dm $end
$var reg 8 # \dm[2] [7:0] $end
$upscope $end
$upscope $end
$upscope $end
$upscope $end
$scope module tb_mips $end
$scope module my_mips $end
$scope module my_datapath $end
$scope module my_dm $end
$var reg 8 $ \dm[3] [7:0] $end
$upscope $end
$upscope $end
$upscope $end
$upscope $end
$scope module tb_mips $end
$scope module my_mips $end
$scope module my_datapath $end
$scope module my_dm $end
$var reg 8 % \dm[4] [7:0] $end
$upscope $end
$upscope $end
$upscope $end
$upscope $end
$scope module tb_mips $end
$scope module my_mips $end
$scope module my_datapath $end
$scope module my_dm $end
$var reg 8 & \dm[5] [7:0] $end
$upscope $end
$upscope $end
$upscope $end
$upscope $end
$scope module tb_mips $end
$scope module my_mips $end
$scope module my_datapath $end
$scope module my_dm $end
$var reg 8 ' \dm[6] [7:0] $end
$upscope $end
$upscope $end
$upscope $end
$upscope $end
$scope module tb_mips $end
$scope module my_mips $end
$scope module my_datapath $end
$scope module my_dm $end
$var reg 8 ( \dm[7] [7:0] $end
$upscope $end
$upscope $end
$upscope $end
$upscope $end
$scope module tb_mips $end
$scope module my_mips $end
$scope module my_datapath $end
$scope module my_dm $end
$var reg 8 ) \dm[8] [7:0] $end
$upscope $end
$upscope $end
$upscope $end
$upscope $end
$scope module tb_mips $end
$scope module my_mips $end
$scope module my_datapath $end
$scope module my_dm $end
$var reg 8 * \dm[9] [7:0] $end
$upscope $end
$upscope $end
$upscope $end
$upscope $end
$scope module tb_mips $end
$scope module my_mips $end
$scope module my_datapath $end
$scope module my_dm $end
$var reg 8 + \dm[10] [7:0] $end
$upscope $end
$upscope $end
$upscope $end
$upscope $end
$scope module tb_mips $end
$scope module my_mips $end
$scope module my_datapath $end
$scope module my_dm $end
$var reg 8 , \dm[11] [7:0] $end
$upscope $end
$upscope $end
$upscope $end
$upscope $end
$scope module tb_mips $end
$scope module my_mips $end
$scope module my_datapath $end
$scope module my_dm $end
$var reg 8 - \dm[12] [7:0] $end
$upscope $end
$upscope $end
$upscope $end
$upscope $end
$scope module tb_mips $end
$scope module my_mips $end
$scope module my_datapath $end
$scope module my_dm $end
$var reg 8 . \dm[13] [7:0] $end
$upscope $end
$upscope $end
$upscope $end
$upscope $end
$scope module tb_mips $end
$scope module my_mips $end
$scope module my_datapath $end
$scope module my_dm $end
$var reg 8 / \dm[14] [7:0] $end
$upscope $end
$upscope $end
$upscope $end
$upscope $end
$scope module tb_mips $end
$scope module my_mips $end
$scope module my_datapath $end
$scope module my_dm $end
$var reg 8 0 \dm[15] [7:0] $end
$upscope $end
$upscope $end
$upscope $end
$upscope $end
$scope module tb_mips $end
$scope module my_mips $end
$scope module my_datapath $end
$scope module my_gpr $end
$var reg 32 1 \regs[0] [31:0] $end
$upscope $end
$upscope $end
$upscope $end
$upscope $end
$scope module tb_mips $end
$scope module my_mips $end
$scope module my_datapath $end
$scope module my_gpr $end
$var reg 32 2 \regs[1] [31:0] $end
$upscope $end
$upscope $end
$upscope $end
$upscope $end
$scope module tb_mips $end
$scope module my_mips $end
$scope module my_datapath $end
$scope module my_gpr $end
$var reg 32 3 \regs[2] [31:0] $end
$upscope $end
$upscope $end
$upscope $end
$upscope $end
$scope module tb_mips $end
$scope module my_mips $end
$scope module my_datapath $end
$scope module my_gpr $end
$var reg 32 4 \regs[3] [31:0] $end
$upscope $end
$upscope $end
$upscope $end
$upscope $end
$scope module tb_mips $end
$scope module my_mips $end
$scope module my_datapath $end
$scope module my_gpr $end
$var reg 32 5 \regs[4] [31:0] $end
$upscope $end
$upscope $end
$upscope $end
$upscope $end
$scope module tb_mips $end
$scope module my_mips $end
$scope module my_datapath $end
$scope module my_gpr $end
$var reg 32 6 \regs[5] [31:0] $end
$upscope $end
$upscope $end
$upscope $end
$upscope $end
$scope module tb_mips $end
$scope module my_mips $end
$scope module my_datapath $end
$scope module my_gpr $end
$var reg 32 7 \regs[6] [31:0] $end
$upscope $end
$upscope $end
$upscope $end
$upscope $end
$scope module tb_mips $end
$scope module my_mips $end
$scope module my_datapath $end
$scope module my_gpr $end
$var reg 32 8 \regs[7] [31:0] $end
$upscope $end
$upscope $end
$upscope $end
$upscope $end
$scope module tb_mips $end
$scope module my_mips $end
$scope module my_datapath $end
$scope module my_gpr $end
$var reg 32 9 \regs[8] [31:0] $end
$upscope $end
$upscope $end
$upscope $end
$upscope $end
$scope module tb_mips $end
$scope module my_mips $end
$scope module my_datapath $end
$scope module my_gpr $end
$var reg 32 : \regs[9] [31:0] $end
$upscope $end
$upscope $end
$upscope $end
$upscope $end
$scope module tb_mips $end
$scope module my_mips $end
$scope module my_datapath $end
$scope module my_gpr $end
$var reg 32 ; \regs[10] [31:0] $end
$upscope $end
$upscope $end
$upscope $end
$upscope $end
$scope module tb_mips $end
$scope module my_mips $end
$scope module my_datapath $end
$scope module my_gpr $end
$var reg 32 < \regs[11] [31:0] $end
$upscope $end
$upscope $end
$upscope $end
$upscope $end
$scope module tb_mips $end
$scope module my_mips $end
$scope module my_datapath $end
$scope module my_gpr $end
$var reg 32 = \regs[12] [31:0] $end
$upscope $end
$upscope $end
$upscope $end
$upscope $end
$scope module tb_mips $end
$scope module my_mips $end
$scope module my_datapath $end
$scope module my_gpr $end
$var reg 32 > \regs[13] [31:0] $end
$upscope $end
$upscope $end
$upscope $end
$upscope $end
$scope module tb_mips $end
$scope module my_mips $end
$scope module my_datapath $end
$scope module my_gpr $end
$var reg 32 ? \regs[14] [31:0] $end
$upscope $end
$upscope $end
$upscope $end
$upscope $end
$scope module tb_mips $end
$scope module my_mips $end
$scope module my_datapath $end
$scope module my_gpr $end
$var reg 32 @ \regs[15] [31:0] $end
$upscope $end
$upscope $end
$upscope $end
$upscope $end
$scope module tb_mips $end
$scope module my_mips $end
$scope module my_datapath $end
$scope module my_gpr $end
$var reg 32 A \regs[16] [31:0] $end
$upscope $end
$upscope $end
$upscope $end
$upscope $end
$scope module tb_mips $end
$scope module my_mips $end
$scope module my_datapath $end
$scope module my_gpr $end
$var reg 32 B \regs[17] [31:0] $end
$upscope $end
$upscope $end
$upscope $end
$upscope $end
$scope module tb_mips $end
$scope module my_mips $end
$scope module my_datapath $end
$scope module my_gpr $end
$var reg 32 C \regs[18] [31:0] $end
$upscope $end
$upscope $end
$upscope $end
$upscope $end
$scope module tb_mips $end
$scope module my_mips $end
$scope module my_datapath $end
$scope module my_gpr $end
$var reg 32 D \regs[19] [31:0] $end
$upscope $end
$upscope $end
$upscope $end
$upscope $end
$scope module tb_mips $end
$scope module my_mips $end
$scope module my_datapath $end
$scope module my_gpr $end
$var reg 32 E \regs[20] [31:0] $end
$upscope $end
$upscope $end
$upscope $end
$upscope $end
$scope module tb_mips $end
$scope module my_mips $end
$scope module my_datapath $end
$scope module my_gpr $end
$var reg 32 F \regs[21] [31:0] $end
$upscope $end
$upscope $end
$upscope $end
$upscope $end
$scope module tb_mips $end
$scope module my_mips $end
$scope module my_datapath $end
$scope module my_gpr $end
$var reg 32 G \regs[22] [31:0] $end
$upscope $end
$upscope $end
$upscope $end
$upscope $end
$scope module tb_mips $end
$scope module my_mips $end
$scope module my_datapath $end
$scope module my_gpr $end
$var reg 32 H \regs[23] [31:0] $end
$upscope $end
$upscope $end
$upscope $end
$upscope $end
$scope module tb_mips $end
$scope module my_mips $end
$scope module my_datapath $end
$scope module my_gpr $end
$var reg 32 I \regs[24] [31:0] $end
$upscope $end
$upscope $end
$upscope $end
$upscope $end
$scope module tb_mips $end
$scope module my_mips $end
$scope module my_datapath $end
$scope module my_gpr $end
$var reg 32 J \regs[25] [31:0] $end
$upscope $end
$upscope $end
$upscope $end
$upscope $end
$scope module tb_mips $end
$scope module my_mips $end
$scope module my_datapath $end
$scope module my_gpr $end
$var reg 32 K \regs[26] [31:0] $end
$upscope $end
$upscope $end
$upscope $end
$upscope $end
$scope module tb_mips $end
$scope module my_mips $end
$scope module my_datapath $end
$scope module my_gpr $end
$var reg 32 L \regs[27] [31:0] $end
$upscope $end
$upscope $end
$upscope $end
$upscope $end
$scope module tb_mips $end
$scope module my_mips $end
$scope module my_datapath $end
$scope module my_gpr $end
$var reg 32 M \regs[28] [31:0] $end
$upscope $end
$upscope $end
$upscope $end
$upscope $end
$scope module tb_mips $end
$scope module my_mips $end
$scope module my_datapath $end
$scope module my_gpr $end
$var reg 32 N \regs[29] [31:0] $end
$upscope $end
$upscope $end
$upscope $end
$upscope $end
$scope module tb_mips $end
$scope module my_mips $end
$scope module my_datapath $end
$scope module my_gpr $end
$var reg 32 O \regs[30] [31:0] $end
$upscope $end
$upscope $end
$upscope $end
$upscope $end
$scope module tb_mips $end
$scope module my_mips $end
$scope module my_datapath $end
$scope module my_gpr $end
$var reg 32 P \regs[31] [31:0] $end
$upscope $end
$upscope $end
$upscope $end
$upscope $end
$scope module tb_mips $end
$scope module my_mips $end
$scope module my_datapath $end
$scope module my_im $end
$var reg 8 Q \im[0] [7:0] $end
$upscope $end
$upscope $end
$upscope $end
$upscope $end
$scope module tb_mips $end
$scope module my_mips $end
$scope module my_datapath $end
$scope module my_im $end
$var reg 8 R \im[1] [7:0] $end
$upscope $end
$upscope $end
$upscope $end
$upscope $end
$scope module tb_mips $end
$scope module my_mips $end
$scope module my_datapath $end
$scope module my_im $end
$var reg 8 S \im[2] [7:0] $end
$upscope $end
$upscope $end
$upscope $end
$upscope $end
$scope module tb_mips $end
$scope module my_mips $end
$scope module my_datapath $end
$scope module my_im $end
$var reg 8 T \im[3] [7:0] $end
$upscope $end
$upscope $end
$upscope $end
$upscope $end
$scope module tb_mips $end
$scope module my_mips $end
$scope module my_datapath $end
$scope module my_im $end
$var reg 8 U \im[4] [7:0] $end
$upscope $end
$upscope $end
$upscope $end
$upscope $end
$scope module tb_mips $end
$scope module my_mips $end
$scope module my_datapath $end
$scope module my_im $end
$var reg 8 V \im[5] [7:0] $end
$upscope $end
$upscope $end
$upscope $end
$upscope $end
$scope module tb_mips $end
$scope module my_mips $end
$scope module my_datapath $end
$scope module my_im $end
$var reg 8 W \im[6] [7:0] $end
$upscope $end
$upscope $end
$upscope $end
$upscope $end
$scope module tb_mips $end
$scope module my_mips $end
$scope module my_datapath $end
$scope module my_im $end
$var reg 8 X \im[7] [7:0] $end
$upscope $end
$upscope $end
$upscope $end
$upscope $end
$scope module tb_mips $end
$scope module my_mips $end
$scope module my_datapath $end
$scope module my_im $end
$var reg 8 Y \im[8] [7:0] $end
$upscope $end
$upscope $end
$upscope $end
$upscope $end
$scope module tb_mips $end
$scope module my_mips $end
$scope module my_datapath $end
$scope module my_im $end
$var reg 8 Z \im[9] [7:0] $end
$upscope $end
$upscope $end
$upscope $end
$upscope $end
$scope module tb_mips $end
$scope module my_mips $end
$scope module my_datapath $end
$scope module my_im $end
$var reg 8 [ \im[10] [7:0] $end
$upscope $end
$upscope $end
$upscope $end
$upscope $end
$scope module tb_mips $end
$scope module my_mips $end
$scope module my_datapath $end
$scope module my_im $end
$var reg 8 \ \im[11] [7:0] $end
$upscope $end
$upscope $end
$upscope $end
$upscope $end
$scope module tb_mips $end
$scope module my_mips $end
$scope module my_datapath $end
$scope module my_im $end
$var reg 8 ] \im[12] [7:0] $end
$upscope $end
$upscope $end
$upscope $end
$upscope $end
$scope module tb_mips $end
$scope module my_mips $end
$scope module my_datapath $end
$scope module my_im $end
$var reg 8 ^ \im[13] [7:0] $end
$upscope $end
$upscope $end
$upscope $end
$upscope $end
$scope module tb_mips $end
$scope module my_mips $end
$scope module my_datapath $end
$scope module my_im $end
$var reg 8 _ \im[14] [7:0] $end
$upscope $end
$upscope $end
$upscope $end
$upscope $end
$scope module tb_mips $end
$scope module my_mips $end
$scope module my_datapath $end
$scope module my_im $end
$var reg 8 ` \im[15] [7:0] $end
$upscope $end
$upscope $end
$upscope $end
$upscope $end
$scope module tb_mips $end
$var reg 1 a clk $end
$var reg 1 b rst $end
$scope module my_mips $end
$var wire 1 a clk $end
$var wire 1 b rst $end
$var wire 1 c zero $end
$var wire 5 d rt_out [4:0] $end
$var wire 5 e rs_out [4:0] $end
$var wire 1 f pos $end
$var wire 6 g opcode [5:0] $end
$var wire 6 h funct [5:0] $end
$var wire 1 i flow $end
$var wire 3 j WDsel [2:0] $end
$var wire 1 k PCWr $end
$var wire 2 l NPCOp [1:0] $end
$var wire 1 m MemByte $end
$var wire 1 n IRWr $end
$var wire 2 o GPRsel [1:0] $end
$var wire 1 p GPRWr $end
$var wire 2 q Extop [1:0] $end
$var wire 1 r DMWr $end
$var wire 1 s Bsel $end
$var wire 2 t ALUsel [1:0] $end
$var wire 2 u ALUOp [1:0] $end
$scope module my_controller $end
$var wire 1 r DMWr $end
$var wire 1 p GPRWr $end
$var wire 1 m MemByte $end
$var wire 1 k PCWr $end
$var wire 1 a clk $end
$var wire 1 b rst $end
$var wire 1 c zero $end
$var wire 5 v rt [4:0] $end
$var wire 5 w rs [4:0] $end
$var wire 1 f pos $end
$var wire 6 x opcode [5:0] $end
$var wire 6 y funct [5:0] $end
$var wire 1 i flow $end
$var wire 3 z WDsel [2:0] $end
$var wire 2 { NPCOp [1:0] $end
$var wire 1 n IRWr $end
$var wire 2 | GPRsel [1:0] $end
$var wire 2 } Extop [1:0] $end
$var wire 1 s Bsel $end
$var wire 2 ~ ALUsel [1:0] $end
$var wire 2 !" ALUOp [1:0] $end
$var reg 4 "" fsm [3:0] $end
$upscope $end
$scope module my_datapath $end
$var wire 2 #" ALUOp [1:0] $end
$var wire 2 $" ALUsel [1:0] $end
$var wire 1 s Bsel $end
$var wire 1 r DMWr $end
$var wire 2 %" Extop [1:0] $end
$var wire 1 p GPRWr $end
$var wire 2 &" GPRsel [1:0] $end
$var wire 1 n IRWr $end
$var wire 1 m MemByte $end
$var wire 2 '" NPCOp [1:0] $end
$var wire 1 k PCWr $end
$var wire 3 (" WDsel [2:0] $end
$var wire 1 a clk $end
$var wire 1 i flow $end
$var wire 1 b rst $end
$var wire 1 c zero $end
$var wire 1 )" zero_out $end
$var wire 5 *" write_reg [4:0] $end
$var wire 32 +" write_data [31:0] $end
$var wire 5 ," rt_out [4:0] $end
$var wire 5 -" rs_out [4:0] $end
$var wire 32 ." reg_b_r [31:0] $end
$var wire 32 /" reg_b [31:0] $end
$var wire 32 0" reg_a_r [31:0] $end
$var wire 32 1" reg_a [31:0] $end
$var wire 1 f pos_out $end
$var wire 32 2" pc_4 [31:0] $end
$var wire 32 3" pc [31:0] $end
$var wire 6 4" opcode [5:0] $end
$var wire 32 5" npc [31:0] $end
$var wire 32 6" jr_data [31:0] $end
$var wire 32 7" instr_r [31:0] $end
$var wire 32 8" instr [31:0] $end
$var wire 32 9" imm_ext [31:0] $end
$var wire 6 :" funct [5:0] $end
$var wire 1 ;" flow_out $end
$var wire 32 <" dm_out_r [31:0] $end
$var wire 32 =" dm_out [31:0] $end
$var wire 32 >" alu_out_r [31:0] $end
$var wire 32 ?" alu_out [31:0] $end
$scope module my_alu $end
$var wire 2 @" ALUOp [1:0] $end
$var wire 2 A" ALUsel [1:0] $end
$var wire 32 B" din2 [31:0] $end
$var wire 1 )" zero $end
$var wire 1 f pos $end
$var wire 32 C" din1 [31:0] $end
$var reg 32 D" dout [31:0] $end
$var reg 1 ;" flow $end
$var reg 32 E" tmp [31:0] $end
$upscope $end
$scope module my_aluout $end
$var wire 1 a clk $end
$var wire 32 F" din [31:0] $end
$var reg 32 G" dout [31:0] $end
$upscope $end
$scope module my_dm $end
$var wire 1 m MemByte $end
$var wire 10 H" addr [9:0] $end
$var wire 1 a clk $end
$var wire 1 b rst $end
$var wire 1 r we $end
$var wire 32 I" dout [31:0] $end
$var wire 32 J" din [31:0] $end
$var integer 32 K" i [31:0] $end
$upscope $end
$scope module my_dr $end
$var wire 1 a clk $end
$var wire 32 L" din [31:0] $end
$var reg 32 M" dout [31:0] $end
$upscope $end
$scope module my_ext $end
$var wire 2 N" Extop [1:0] $end
$var wire 16 O" din [15:0] $end
$var reg 32 P" dout [31:0] $end
$upscope $end
$scope module my_gpr $end
$var wire 1 p GPRWr $end
$var wire 1 a clk $end
$var wire 32 Q" data_out [31:0] $end
$var wire 32 R" read_data1 [31:0] $end
$var wire 32 S" read_data2 [31:0] $end
$var wire 5 T" reg1 [4:0] $end
$var wire 5 U" reg2 [4:0] $end
$var wire 5 V" reg_in [4:0] $end
$var wire 1 b rst $end
$var wire 32 W" write_data [31:0] $end
$var wire 5 X" write_reg [4:0] $end
$var integer 32 Y" i [31:0] $end
$upscope $end
$scope module my_im $end
$var wire 10 Z" addr [9:0] $end
$var wire 32 [" dout [31:0] $end
$upscope $end
$scope module my_ir $end
$var wire 1 n IRWr $end
$var wire 1 a clk $end
$var wire 32 \" pc_in [31:0] $end
$var reg 32 ]" instr [31:0] $end
$upscope $end
$scope module my_npc $end
$var wire 2 ^" NPCOp [1:0] $end
$var wire 26 _" imm [25:0] $end
$var wire 32 `" pc_4 [31:0] $end
$var wire 32 a" reg_data [31:0] $end
$var wire 32 b" addr [31:0] $end
$var reg 32 c" npc [31:0] $end
$upscope $end
$scope module my_opa $end
$var wire 1 a clk $end
$var wire 32 d" din [31:0] $end
$var reg 32 e" dout [31:0] $end
$upscope $end
$scope module my_opb $end
$var wire 1 a clk $end
$var wire 32 f" din [31:0] $end
$var reg 32 g" dout [31:0] $end
$upscope $end
$scope module my_pc $end
$var wire 1 k PCWr $end
$var wire 1 a clk $end
$var wire 32 h" din [31:0] $end
$var wire 1 b rst $end
$var reg 32 i" dout [31:0] $end
$upscope $end
$upscope $end
$upscope $end
$upscope $end
$enddefinitions $end
$comment Show the parameter values. $end
$dumpall
$end
#0
$dumpvars
bx i"
bx h"
bx g"
bx f"
bx e"
bx d"
bx c"
bx b"
bx a"
bx `"
bx _"
bx ^"
bx ]"
bx \"
bx ["
bx Z"
bx Y"
bx X"
bx W"
bx V"
bx U"
bx T"
bx S"
bx R"
bx Q"
b0 P"
bx O"
bx N"
bx M"
bx L"
bx K"
bx J"
bx I"
bx H"
bx G"
bx F"
bx E"
bx D"
bx C"
bx B"
bx A"
bx @"
bx ?"
bx >"
bx ="
bx <"
x;"
bx :"
b0 9"
bx 8"
bx 7"
bx 6"
bx 5"
bx 4"
bx 3"
bx 2"
bx 1"
bx 0"
bx /"
bx ."
bx -"
bx ,"
bx +"
bx *"
x)"
b0xx ("
bx '"
bx &"
bx %"
bx $"
bx #"
bx ""
bx !"
bx ~
bx }
bx |
bx {
b0xx z
bx y
bx x
bx w
bx v
bx u
bx t
xs
xr
bx q
xp
bx o
xn
xm
bx l
xk
b0xx j
xi
bx h
bx g
xf
bx e
bx d
xc
1b
0a
b10101011 `
b10101011 _
b1100 ^
b110100 ]
b1 \
b0 [
b1000 Z
b110100 Y
b11 X
b0 W
b10001 V
b110100 U
b1 T
b0 S
b10000 R
b110100 Q
bx P
bx O
bx N
bx M
bx L
bx K
bx J
bx I
bx H
bx G
bx F
bx E
bx D
bx C
bx B
bx A
bx @
bx ?
bx >
bx =
bx <
bx ;
bx :
bx 9
bx 8
bx 7
bx 6
bx 5
bx 4
bx 3
bx 2
bx 1
bx 0
bx /
bx .
bx -
bx ,
bx +
bx *
bx )
bx (
bx '
bx &
bx %
bx $
bx #
bx "
bx !
$end
#5000
b0 l
b0 {
b0 '"
b0 ^"
1k
0p
0r
b110100000100000000000000000001 8"
b110100000100000000000000000001 ["
b110100000100000000000000000001 \"
b0 Z"
b11000000000100 5"
b11000000000100 c"
b11000000000100 h"
1n
b0 ""
b11000000000000 2"
b11000000000000 `"
b11000000000000 3"
b11000000000000 b"
b11000000000000 i"
b0 P
b0 O
b0 N
b0 M
b0 L
b0 K
b0 J
b0 I
b0 H
b0 G
b0 F
b0 E
b0 D
b0 C
b0 B
b0 A
b0 @
b0 ?
b0 >
b0 =
b0 <
b0 ;
b0 :
b0 9
b0 8
b0 7
b0 6
b0 5
b0 4
b0 3
b0 2
b0 1
b0 0
b0 /
b0 .
b0 -
b0 ,
b0 +
b0 *
b0 )
b0 (
b0 '
b0 &
b0 %
b0 $
b0 #
b0 "
b0 !
b100000 Y"
b10000000000 K"
1a
#10000
0a
0b
#15000
0c
0)"
bx1 ?"
bx1 D"
bx1 F"
0i
0;"
b10000 *"
b10000 X"
b1 B"
b1 9"
b1 P"
0k
b10 u
b10 !"
b10 #"
b10 @"
1s
b0 q
b0 }
b0 %"
b0 N"
b0 o
b0 |
b0 &"
b0 j
b0 z
b0 ("
0m
b0 t
b0 ~
b0 $"
b0 A"
b100000000000000000001 _"
b1 O"
b0 6"
b0 Q"
b0 a"
b0 V"
b0 /"
b0 S"
b0 f"
b10000 U"
b0 1"
b0 R"
b0 d"
b0 T"
b0 e
b0 w
b0 -"
b10000 d
b10000 v
b10000 ,"
b1 h
b1 y
b1 :"
b1101 g
b1101 x
b1101 4"
b110100000100010000000000000011 8"
b110100000100010000000000000011 ["
b110100000100010000000000000011 \"
b100 Z"
b11000000001000 5"
b11000000001000 c"
b11000000001000 h"
b110100000100000000000000000001 7"
b110100000100000000000000000001 ]"
b11000000000100 2"
b11000000000100 `"
b11000000000100 3"
b11000000000100 b"
b11000000000100 i"
0n
b1 ""
1a
#20000
0a
#25000
1f
b1 ?"
b1 D"
b1 F"
bx1 H"
bx1 +"
bx1 W"
b10 ""
b0 0"
b0 C"
b0 e"
b0 ."
b0 J"
b0 g"
bx1 >"
bx1 G"
1a
#30000
0a
#35000
b0 ="
b0 I"
b0 L"
1p
b1 H"
b1 +"
b1 W"
b1 >"
b1 G"
b101 ""
1a
#40000
0a
#45000
1k
0p
1n
b0 ""
b1 A
b1 /"
b1 S"
b1 f"
b0 <"
b0 M"
1a
#50000
0a
#55000
b11 ?"
b11 D"
b11 F"
0k
b11 B"
b11 9"
b11 P"
b10001 *"
b10001 X"
b100010000000000000011 _"
b11 O"
b0 /"
b0 S"
b0 f"
b10001 U"
b10001 d
b10001 v
b10001 ,"
b11 h
b11 y
b11 :"
b110100000010000000000000000001 8"
b110100000010000000000000000001 ["
b110100000010000000000000000001 \"
b1000 Z"
b11000000001100 5"
b11000000001100 c"
b11000000001100 h"
b1 ."
b1 J"
b1 g"
b110100000100010000000000000011 7"
b110100000100010000000000000011 ]"
b11000000001000 2"
b11000000001000 `"
b11000000001000 3"
b11000000001000 b"
b11000000001000 i"
0n
b1 ""
1a
#60000
0a
#65000
b11 H"
b11 +"
b11 W"
b10 ""
b0 ."
b0 J"
b0 g"
b11 >"
b11 G"
1a
#70000
0a
#75000
1p
b101 ""
1a
#80000
0a
#85000
1k
0p
1n
b0 ""
b11 B
b11 /"
b11 S"
b11 f"
1a
#90000
0a
#95000
b1 ?"
b1 D"
b1 F"
0k
b1 B"
b1 9"
b1 P"
b1000 *"
b1000 X"
b10000000000000000001 _"
b1 O"
b0 /"
b0 S"
b0 f"
b1000 U"
b1000 d
b1000 v
b1000 ,"
b1 h
b1 y
b1 :"
b110100000011001010101110101011 8"
b110100000011001010101110101011 ["
b110100000011001010101110101011 \"
b1100 Z"
b11000000010000 5"
b11000000010000 c"
b11000000010000 h"
b11 ."
b11 J"
b11 g"
b110100000010000000000000000001 7"
b110100000010000000000000000001 ]"
b11000000001100 2"
b11000000001100 `"
b11000000001100 3"
b11000000001100 b"
b11000000001100 i"
0n
b1 ""
1a
#100000
0a
#105000
b1 H"
b1 +"
b1 W"
b10 ""
b0 ."
b0 J"
b0 g"
b1 >"
b1 G"
1a
#110000
0a
#115000
1p
b101 ""
1a
#120000
0a
#125000
1k
0p
1n
b0 ""
b1 9
b1 /"
b1 S"
b1 f"
1a
#130000
0a
#135000
b1010101110101011 ?"
b1010101110101011 D"
b1010101110101011 F"
0k
b1010101110101011 B"
b1010101110101011 9"
b1010101110101011 P"
b1100 *"
b1100 X"
b11001010101110101011 _"
b1010101110101011 O"
b0 /"
b0 S"
b0 f"
b1100 U"
b1100 d
b1100 v
b1100 ,"
b101011 h
b101011 y
b101011 :"
b111100000011010000000000001010 8"
b111100000011010000000000001010 ["
b111100000011010000000000001010 \"
b10000 Z"
b11000000010100 5"
b11000000010100 c"
b11000000010100 h"
b1 ."
b1 J"
b1 g"
b110100000011001010101110101011 7"
b110100000011001010101110101011 ]"
b11000000010000 2"
b11000000010000 `"
b11000000010000 3"
b11000000010000 b"
b11000000010000 i"
0n
b1 ""
1a
#140000
0a
#145000
b1110101011 H"
b1010101110101011 +"
b1010101110101011 W"
b10 ""
b0 ."
b0 J"
b0 g"
b1010101110101011 >"
b1010101110101011 G"
1a
#150000
0a
#155000
1p
b101 ""
1a
#160000
0a
#165000
1k
0p
1n
b0 ""
b1010101110101011 =
b1010101110101011 /"
b1010101110101011 S"
b1010101110101011 f"
1a
#170000
0a
#175000
b10100000000000000000 ?"
b10100000000000000000 D"
b10100000000000000000 F"
0k
b10100000000000000000 B"
b10 q
b10 }
b10 %"
b10 N"
b10100000000000000000 9"
b10100000000000000000 P"
b1101 *"
b1101 X"
b11010000000000001010 _"
b1010 O"
b0 /"
b0 S"
b0 f"
b1101 U"
b1101 d
b1101 v
b1101 ,"
b1010 h
b1010 y
b1010 :"
b1111 g
b1111 x
b1111 4"
b100000010000000100001 8"
b100000010000000100001 ["
b100000010000000100001 \"
b10100 Z"
b11000000011000 5"
b11000000011000 c"
b11000000011000 h"
b1010101110101011 ."
b1010101110101011 J"
b1010101110101011 g"
b111100000011010000000000001010 7"
b111100000011010000000000001010 ]"
b11000000010100 2"
b11000000010100 `"
b11000000010100 3"
b11000000010100 b"
b11000000010100 i"
0n
b1 ""
1a
#180000
0a
#185000
b0 H"
b10100000000000000000 +"
b10100000000000000000 W"
b10 ""
b0 ."
b0 J"
b0 g"
b10100000000000000000 >"
b10100000000000000000 G"
1a
#190000
0a
#195000
1p
b101 ""
1a
#200000
0a
#205000
1k
0p
1n
b0 ""
b10100000000000000000 >
b10100000000000000000 /"
b10100000000000000000 S"
b10100000000000000000 f"
1a
#210000
0a
#215000
0s
b1 o
b1 |
b1 &"
b10100000000000000000 ?"
b10100000000000000000 D"
b10100000000000000000 F"
b0 u
b0 !"
b0 #"
b0 @"
0k
b10100000000000000000 B"
b0 q
b0 }
b0 %"
b0 N"
b10000000100001 9"
b10000000100001 P"
b100 *"
b100 X"
b100000010000000100001 _"
b10000000100001 O"
b1 /"
b1 S"
b1 f"
b10000 U"
b10000 d
b10000 v
b10000 ,"
b100001 h
b100001 y
b100001 :"
b0 g
b0 x
b0 4"
b10000010100000100001 8"
b10000010100000100001 ["
b10000010100000100001 \"
b11000 Z"
b11000000011100 5"
b11000000011100 c"
b11000000011100 h"
b10100000000000000000 ."
b10100000000000000000 J"
b10100000000000000000 g"
b100000010000000100001 7"
b100000010000000100001 ]"
b11000000011000 2"
b11000000011000 `"
b11000000011000 3"
b11000000011000 b"
b11000000011000 i"
0n
b1 ""
1a
#220000
0a
#225000
b1 ?"
b1 D"
b1 F"
b1 B"
b10 ""
b1 ."
b1 J"
b1 g"
1a
#230000
0a
#235000
1p
b1 H"
b1 +"
b1 W"
b1 >"
b1 G"
b101 ""
1a
#240000
0a
#245000
1k
0p
1n
b0 ""
b1 5
1a
#250000
0a
#255000
0k
b101 *"
b101 X"
b10100000100001 9"
b10100000100001 P"
b10000010100000100001 _"
b10100000100001 O"
b1000 U"
b1000 d
b1000 v
b1000 ,"
b1100000000000000110000110011 8"
b1100000000000000110000110011 ["
b1100000000000000110000110011 \"
b11100 Z"
b11000000100000 5"
b11000000100000 c"
b11000000100000 h"
b10000010100000100001 7"
b10000010100000100001 ]"
b11000000011100 2"
b11000000011100 `"
b11000000011100 3"
b11000000011100 b"
b11000000011100 i"
0n
b1 ""
1a
#260000
0a
#265000
b10 ""
1a
#270000
0a
#275000
1p
b101 ""
1a
#280000
0a
#285000
1k
0p
1n
b0 ""
b1 6
1a
#290000
0a
#295000
b11000000100000 +"
b11000000100000 W"
0k
b11111 *"
b11111 X"
b11 o
b11 |
b11 &"
b10 j
b10 z
b10 ("
b110000110011 9"
b110000110011 P"
b110000110011 _"
b110000110011 O"
b0 /"
b0 S"
b0 f"
b0 U"
b0 d
b0 v
b0 ,"
b110011 h
b110011 y
b110011 :"
b11 g
b11 x
b11 4"
b101000000000100001 8"
b101000000000100001 ["
b101000000000100001 \"
b100000 Z"
b11000000100100 5"
b11000000100100 c"
b11000000100100 h"
b1100000000000000110000110011 7"
b1100000000000000110000110011 ]"
b11000000100000 2"
b11000000100000 `"
b11000000100000 3"
b11000000100000 b"
b11000000100000 i"
0n
b1 ""
1a
#300000
0a
#305000
1k
b11000011001100 5"
b11000011001100 c"
b11000011001100 h"
b1 l
b1 {
b1 '"
b1 ^"
1c
1)"
1p
b0 ?"
b0 D"
b0 F"
b0 B"
b111 ""
b0 ."
b0 J"
b0 g"
1a
#310000
0a
